{
  "name": "@use-gpu/core",
  "version": "0.13.1",
  "main": "./cjs/index.cjs",
  "author": "Steven Wittens <steven@acko.net>",
  "module": "./mjs/index.mjs",
  "license": "MIT",
  "dependencies": {
    "@use-gpu/state": "^0.13.1",
    "earcut": "^2.2.4",
    "gl-matrix": "^3.3.0",
    "lodash": "^4.17.21"
  },
  "scripts": {
    "test": "MODULE_ENV=cjs jest --watch",
    "lint": "eslint src --ext ts",
    "coverage": "echo 'jest --collect-coverage' disabled",
    "types": "tsc --noEmit",
    "types:watch": "yarn run types -- --watch",
    "build": "NPM_PACKAGE=core ../../scripts/build-mjs-cjs.sh"
  },
  "keywords": [
    "use-gpu",
    "use-gpu-library"
  ],
  "sideEffects": false
}