{
  "name": "@use-gpu/glsl-loader",
  "version": "0.13.1",
  "main": "./cjs/index.cjs",
  "author": "Steven Wittens <steven@acko.net>",
  "module": "./mjs/index.mjs",
  "license": "MIT",
  "dependencies": {
    "@use-gpu/shader": "^0.13.1",
    "schema-utils": "^3.1.1"
  },
  "exports": {
    ".": {
      "types": "./mjs/index.d.ts",
      "import": "./mjs/index.mjs",
      "require": "./cjs/index.cjs"
    },
    "./esbuild": {
      "types": "./mjs/esbuild.d.ts",
      "import": "./mjs/esbuild.mjs",
      "require": "./cjs/esbuild.cjs"
    },
    "./rollup": {
      "types": "./mjs/rollup.d.ts",
      "import": "./mjs/rollup.mjs",
      "require": "./cjs/rollup.cjs"
    },
    "./webpack": {
      "types": "./mjs/webpack.d.ts",
      "import": "./mjs/webpack.mjs",
      "require": "./cjs/webpack.cjs"
    }
  },
  "scripts": {
    "build": "NPM_PACKAGE=glsl-loader ../../scripts/build-mjs-cjs.sh",
    "test": "MODULE_ENV=cjs jest --watch",
    "lint": "eslint src --ext ts",
    "coverage": "echo 'jest --collect-coverage' disabled",
    "types": "tsc --noEmit",
    "types:watch": "yarn run types -- --watch"
  },
  "devDependencies": {
    "@types/loader-utils": "^2.0.3",
    "@types/lodash": "^4.14.176"
  },
  "keywords": [
    "use-gpu",
    "use-gpu-loader"
  ]
}