{
  "name": "@use-gpu/glyph",
  "version": "0.13.1",
  "main": "./cjs/index.cjs",
  "author": "Steven Wittens <steven@acko.net>",
  "module": "./mjs/index.mjs",
  "license": "MIT",
  "exports": {
    ".": {
      "types": "./mjs/index.d.ts",
      "import": "./mjs/index.mjs",
      "require": "./cjs/index.cjs"
    },
    "./sdf": {
      "types": "./mjs/sdf.d.ts",
      "import": "./mjs/sdf.mjs",
      "require": "./cjs/sdf.cjs"
    }
  },
  "dependencies": {
    "@use-gpu/state": "^0.13.1"
  },
  "scripts": {
    "build": "yarn run build:wasm && yarn run build:js && yarn run build:pkg",
    "build:js": "NPM_PACKAGE=glyph ../../scripts/build-mjs-cjs.sh",
    "build:wasm": "rm -rf pkg; cd ../../rust/use-gpu-text; wasm-pack build; cp -r pkg/ ../../packages/glyph/pkg/; rm ../../packages/glyph/pkg/.gitignore",
    "build:pkg": "cp -r pkg ../../build/packages/glyph/",
    "test": "MODULE_ENV=cjs jest --watch",
    "lint": "eslint src --ext ts",
    "coverage": "echo 'jest --collect-coverage' disabled",
    "types": "tsc --noEmit",
    "types:watch": "yarn run types -- --watch"
  },
  "keywords": [
    "use-gpu",
    "use-gpu-library"
  ],
  "sideEffects": false
}