{
  "name": "@use-gpu/inspect-gpu",
  "version": "0.13.1",
  "main": "./cjs/index.cjs",
  "author": "Steven Wittens <steven@acko.net>",
  "module": "./mjs/index.mjs",
  "license": "MIT",
  "dependencies": {
    "@codemirror/commands": "^6.6.0",
    "@codemirror/language": "^6.0.0",
    "@codemirror/state": "^6.4.1",
    "@codemirror/theme-one-dark": "^6.1.2",
    "@codemirror/view": "^6.30.0",
    "@lezer/highlight": "^1.2.0",
    "@lezer/lr": "^1.4.2",
    "@stitches/react": "^1.2.8",
    "@uiw/codemirror-themes": "^4.23.0",
    "@use-gpu/inspect": "^0.13.1",
    "@use-gpu/layout": "^0.13.1",
    "@use-gpu/shader": "^0.13.1",
    "@use-gpu/webgpu": "^0.13.1",
    "@use-gpu/workbench": "^0.13.1",
    "@use-gpu/wgsl": "^0.13.1",
    "codemirror": "^6.0.1",
    "file-saver": "^2.0.5"
  },
  "scripts": {
    "build": "NPM_PACKAGE=inspect-gpu ../../scripts/build-mjs-cjs.sh",
    "test": "MODULE_ENV=cjs jest --watch",
    "lint": "eslint src --ext ts",
    "coverage": "echo 'jest --collect-coverage' disabled",
    "types": "tsc --noEmit",
    "types:watch": "yarn run types -- --watch"
  },
  "keywords": [
    "use-gpu",
    "use-gpu-components"
  ],
  "sideEffects": false,
  "devDependencies": {
    "@types/file-saver": "^2.0.5"
  }
}