{
  "name": "@use-gpu/webgpu",
  "version": "0.13.1",
  "main": "./cjs/index.cjs",
  "author": "Steven Wittens <steven@acko.net>",
  "module": "./mjs/index.mjs",
  "license": "MIT",
  "dependencies": {
    "@use-gpu/core": "^0.13.1",
    "@use-gpu/live": "^0.13.1",
    "@use-gpu/workbench": "^0.13.1"
  },
  "scripts": {
    "build": "NPM_PACKAGE=webgpu ../../scripts/build-mjs-cjs.sh",
    "test": "MODULE_ENV=cjs jest --watch",
    "lint": "eslint src --ext ts",
    "coverage": "echo 'jest --collect-coverage' disabled",
    "types": "tsc --noEmit",
    "types:watch": "yarn run types -- --watch"
  },
  "keywords": [
    "use-gpu",
    "use-gpu-components"
  ],
  "sideEffects": false
}